26

N          2.29108       -0.11761       -2.35747
C          1.78839       -1.22508       -1.52219
C          2.95779       -2.13497       -1.13418
O          2.63317       -3.44342       -1.14580
O          4.07530       -1.77566       -0.79392
C          1.10679       -0.72862       -0.23935
C         -0.23094       -0.02938       -0.49662
C         -0.87586        0.43190        0.81108
N         -2.16560        1.04339        0.52411
C         -2.92104        1.60102        1.49464
N         -2.28660        2.47474        2.29543
N         -4.16583        1.30802        1.59037
H          3.06313        0.33948       -1.86725
H          1.57018        0.58624       -2.49400
H          1.08637       -1.80874       -2.12866
H          1.78011       -0.05136        0.30310
H          0.93553       -1.58201        0.43035
H         -0.90684       -0.71615       -1.02150
H         -0.09343        0.83934       -1.15060
H         -0.21118        1.14757        1.30814
H         -1.01844       -0.42110        1.48464
H         -2.76687        0.41040       -0.00044
H         -2.89378        3.09227        2.81750
H         -1.57128        2.99557        1.80182
H         -4.57296        1.80714        2.38258
H          3.46903       -3.89401       -0.90275
